%YAML 1.1
%TAG !u! tag:unity3d.com,2011:
--- !u!74 &7400000
AnimationClip:
  m_ObjectHideFlags: 0
  m_CorrespondingSourceObject: {fileID: 0}
  m_PrefabInternal: {fileID: 0}
  m_Name: Amarilla
  serializedVersion: 6
  m_Legacy: 0
  m_Compressed: 0
  m_UseHighQualityCurve: 1
  m_RotationCurves: []
  m_CompressedRotationCurves: []
  m_EulerCurves: []
  m_PositionCurves: []
  m_ScaleCurves: []
  m_FloatCurves: []
  m_PPtrCurves:
  - curve:
    - time: 0
      value: {fileID: 21300000, guid: 9d764a131cac6bb4f9adc8e51ec28bdb, type: 3}
    - time: 0.033333335
      value: {fileID: 21300000, guid: 9565026f8965ed74bb3f586b9f6bc0b7, type: 3}
    - time: 0.083333336
      value: {fileID: 21300000, guid: f502cd5e57017a340a641fb86b40e20f, type: 3}
    - time: 0.11666667
      value: {fileID: 21300000, guid: e0d8e4cfabb64904daa92247d642f817, type: 3}
    - time: 0.15
      value: {fileID: 21300000, guid: 3dc943de47a8ca5479e48dde4583c8f3, type: 3}
    - time: 0.2
      value: {fileID: 21300000, guid: 569e9ca066f398546aa19585b87cc810, type: 3}
    - time: 0.23333333
      value: {fileID: 21300000, guid: d2ca17f443211a242aa9c814aa86695f, type: 3}
    - time: 0.26666668
      value: {fileID: 21300000, guid: c891ba807ceadc34d8725d5d0608e928, type: 3}
    - time: 0.31666666
      value: {fileID: 21300000, guid: 1be0e33611098a14dac6c91b3ea7e5f7, type: 3}
    - time: 0.35
      value: {fileID: 21300000, guid: 28a0f3a2eb085494a95ce39c41839d7d, type: 3}
    - time: 0.4
      value: {fileID: 21300000, guid: 9a0af091d24d6cb4d9b60121601fb029, type: 3}
    - time: 0.43333334
      value: {fileID: 21300000, guid: 87657b5ec5cc3a44e92c5ffa9b1bf6ea, type: 3}
    - time: 0.46666667
      value: {fileID: 21300000, guid: 618bc558fe6745646afb0795aa507c2b, type: 3}
    - time: 0.51666665
      value: {fileID: 21300000, guid: d92a12e732e0f5148b2bb5fa00bb0b55, type: 3}
    - time: 0.55
      value: {fileID: 21300000, guid: 466050bee6d783b4f8e8554ad754589e, type: 3}
    - time: 0.5833333
      value: {fileID: 21300000, guid: 971b4008806c8054d8876e04404f92a9, type: 3}
    - time: 0.6333333
      value: {fileID: 21300000, guid: 9231bbe5dc43bad4d95cba1c733f8ce6, type: 3}
    - time: 0.6666667
      value: {fileID: 21300000, guid: 31640818754f2f440bb2283e1cab4d15, type: 3}
    - time: 0.7
      value: {fileID: 21300000, guid: abfeff9455d2a84408e16e75bd82e1c6, type: 3}
    - time: 0.75
      value: {fileID: 21300000, guid: d2cbaf930bce541459ede053313fe599, type: 3}
    - time: 0.78333336
      value: {fileID: 21300000, guid: 5f4dffff01a32dd408279c51cc0d2656, type: 3}
    - time: 0.81666666
      value: {fileID: 21300000, guid: 961502c5f3a86f948b800e993cc2d5d1, type: 3}
    - time: 0.8666667
      value: {fileID: 21300000, guid: 75e26008d65bd4d4e89b66a200d24327, type: 3}
    - time: 0.9
      value: {fileID: 21300000, guid: 4c7d8253640def641b2f2205a4d6e766, type: 3}
    - time: 0.95
      value: {fileID: 21300000, guid: cc2c9e90a4fb2aa468d8962d37202257, type: 3}
    - time: 0.98333335
      value: {fileID: 21300000, guid: aa263553c0349ac40b1009cbb5b4c709, type: 3}
    - time: 1.0166667
      value: {fileID: 21300000, guid: 638d10c9cf93d6b40aabde6f4f7a07a6, type: 3}
    - time: 1.0666667
      value: {fileID: 21300000, guid: eaf1b2c5e102a6b4b9deb0d224f4620c, type: 3}
    - time: 1.1
      value: {fileID: 21300000, guid: 37e650974d9025f4a8a2bd3276a46641, type: 3}
    - time: 1.1333333
      value: {fileID: 21300000, guid: 8f3c48750dfdd894c80bd8224e08caa3, type: 3}
    - time: 1.1833333
      value: {fileID: 21300000, guid: 7bc4c2d030f31cb4895d73a8136f5caa, type: 3}
    - time: 1.2166667
      value: {fileID: 21300000, guid: 3cea95c20ca9cf2478a124dc0ebbe97a, type: 3}
    attribute: m_Sprite
    path: 
    classID: 212
    script: {fileID: 0}
  m_SampleRate: 60
  m_WrapMode: 0
  m_Bounds:
    m_Center: {x: 0, y: 0, z: 0}
    m_Extent: {x: 0, y: 0, z: 0}
  m_ClipBindingConstant:
    genericBindings:
    - serializedVersion: 2
      path: 0
      attribute: 0
      script: {fileID: 0}
      typeID: 212
      customType: 23
      isPPtrCurve: 1
    pptrCurveMapping:
    - {fileID: 21300000, guid: 9d764a131cac6bb4f9adc8e51ec28bdb, type: 3}
    - {fileID: 21300000, guid: 9565026f8965ed74bb3f586b9f6bc0b7, type: 3}
    - {fileID: 21300000, guid: f502cd5e57017a340a641fb86b40e20f, type: 3}
    - {fileID: 21300000, guid: e0d8e4cfabb64904daa92247d642f817, type: 3}
    - {fileID: 21300000, guid: 3dc943de47a8ca5479e48dde4583c8f3, type: 3}
    - {fileID: 21300000, guid: 569e9ca066f398546aa19585b87cc810, type: 3}
    - {fileID: 21300000, guid: d2ca17f443211a242aa9c814aa86695f, type: 3}
    - {fileID: 21300000, guid: c891ba807ceadc34d8725d5d0608e928, type: 3}
    - {fileID: 21300000, guid: 1be0e33611098a14dac6c91b3ea7e5f7, type: 3}
    - {fileID: 21300000, guid: 28a0f3a2eb085494a95ce39c41839d7d, type: 3}
    - {fileID: 21300000, guid: 9a0af091d24d6cb4d9b60121601fb029, type: 3}
    - {fileID: 21300000, guid: 87657b5ec5cc3a44e92c5ffa9b1bf6ea, type: 3}
    - {fileID: 21300000, guid: 618bc558fe6745646afb0795aa507c2b, type: 3}
    - {fileID: 21300000, guid: d92a12e732e0f5148b2bb5fa00bb0b55, type: 3}
    - {fileID: 21300000, guid: 466050bee6d783b4f8e8554ad754589e, type: 3}
    - {fileID: 21300000, guid: 971b4008806c8054d8876e04404f92a9, type: 3}
    - {fileID: 21300000, guid: 9231bbe5dc43bad4d95cba1c733f8ce6, type: 3}
    - {fileID: 21300000, guid: 31640818754f2f440bb2283e1cab4d15, type: 3}
    - {fileID: 21300000, guid: abfeff9455d2a84408e16e75bd82e1c6, type: 3}
    - {fileID: 21300000, guid: d2cbaf930bce541459ede053313fe599, type: 3}
    - {fileID: 21300000, guid: 5f4dffff01a32dd408279c51cc0d2656, type: 3}
    - {fileID: 21300000, guid: 961502c5f3a86f948b800e993cc2d5d1, type: 3}
    - {fileID: 21300000, guid: 75e26008d65bd4d4e89b66a200d24327, type: 3}
    - {fileID: 21300000, guid: 4c7d8253640def641b2f2205a4d6e766, type: 3}
    - {fileID: 21300000, guid: cc2c9e90a4fb2aa468d8962d37202257, type: 3}
    - {fileID: 21300000, guid: aa263553c0349ac40b1009cbb5b4c709, type: 3}
    - {fileID: 21300000, guid: 638d10c9cf93d6b40aabde6f4f7a07a6, type: 3}
    - {fileID: 21300000, guid: eaf1b2c5e102a6b4b9deb0d224f4620c, type: 3}
    - {fileID: 21300000, guid: 37e650974d9025f4a8a2bd3276a46641, type: 3}
    - {fileID: 21300000, guid: 8f3c48750dfdd894c80bd8224e08caa3, type: 3}
    - {fileID: 21300000, guid: 7bc4c2d030f31cb4895d73a8136f5caa, type: 3}
    - {fileID: 21300000, guid: 3cea95c20ca9cf2478a124dc0ebbe97a, type: 3}
  m_AnimationClipSettings:
    serializedVersion: 2
    m_AdditiveReferencePoseClip: {fileID: 0}
    m_AdditiveReferencePoseTime: 0
    m_StartTime: 0
    m_StopTime: 1.2333333
    m_OrientationOffsetY: 0
    m_Level: 0
    m_CycleOffset: 0
    m_HasAdditiveReferencePose: 0
    m_LoopTime: 1
    m_LoopBlend: 0
    m_LoopBlendOrientation: 0
    m_LoopBlendPositionY: 0
    m_LoopBlendPositionXZ: 0
    m_KeepOriginalOrientation: 0
    m_KeepOriginalPositionY: 1
    m_KeepOriginalPositionXZ: 0
    m_HeightFromFeet: 0
    m_Mirror: 0
  m_EditorCurves: []
  m_EulerEditorCurves: []
  m_HasGenericRootTransform: 0
  m_HasMotionFloatCurves: 0
  m_GenerateMotionCurves: 0
  m_Events: []
